{"count":33901,"next":"https://birn-baza.herokuapp.com/projekti/?format=json&limit=100&offset=100","previous":null,"results":[{"id":12202,"naziv":"Redovne programske aktivnosti","korisnik":"MEĐUOPŠTINSKA ORGANIZACIJA SAVEZA SLEPIH SRBIJE - PANČEVO","tip":"UDRUŽENJE","iznos":50000,"maticni":"08061491","konkurs":1981},{"id":33885,"naziv":"Pokreni i promeni","korisnik":"CENTAR ZA INFORMISANJE, KULTURU I RAZVOJ DEMOKRATIJE DIREKTIVA","tip":"UDRUŽENJE","iznos":420000,"maticni":"28191553","konkurs":3075},{"id":21720,"naziv":"Spomen program Aradai vértanúk","korisnik":"KULTURNO UMETNIČKO DRUŠTVO PETEFI ŠANDOR MALI IĐOŠ","tip":"UDRUŽENJE","iznos":50000,"maticni":"08077304","konkurs":2597},{"id":5962,"naziv":"Nema naziva projekta","korisnik":"KULTURNO UMETNIČKO DRUŠTVO SIRMAI KAROLJ VRBAS","tip":"UDRUŽENJE","iznos":500000,"maticni":"08223386","konkurs":1516},{"id":18616,"naziv":"Koncert Stradanje po Mateju - odlomci, Ilarion Alfejev Kragujevačko pevačko društvo","korisnik":"USTANOVA STUDENTSKI KULTURNI CENTAR KRAGUJEVAC","tip":"USTANOVA","iznos":150000,"maticni":"07244428","konkurs":2002},{"id":18626,"naziv":"Izložba crteža Vreme autora Zorana Ignjatović","korisnik":"USTANOVA STUDENTSKI KULTURNI CENTAR KRAGUJEVAC","tip":"USTANOVA","iznos":104000,"maticni":"07244428","konkurs":2002},{"id":18637,"naziv":"Estam world music festival","korisnik":"USTANOVA STUDENTSKI KULTURNI CENTAR KRAGUJEVAC","tip":"USTANOVA","iznos":300000,"maticni":"07244428","konkurs":2002},{"id":18620,"naziv":"Restauracija prozora Stare crkve sa vitražnim staklima","korisnik":"EPARHIJA ŠUMADIJSKA CRKVENA OPŠTINA STARA CRKVA","tip":"OSTALO","iznos":385000,"maticni":"17662767","konkurs":2002},{"id":18463,"naziv":"Stopama Kirila i Metodija","korisnik":"BOGOSLOVIJA SVETI JOVAN ZLATOUSTI KRAGUJEVAC","tip":"OSTALO","iznos":60000,"maticni":"17662767","konkurs":2002},{"id":18646,"naziv":"Dani kulture studenata FILUM-A","korisnik":"FILOLOŠKO-UMETNIČKI FAKULTET U KRAGUJEVCU","tip":"USTANOVA","iznos":250000,"maticni":"17429108","konkurs":2002},{"id":34927,"naziv":"Nema naziva projekta","korisnik":"LORTUS MEDIJA","tip":"DOO","iznos":400000,"maticni":"28296045","konkurs":3263},{"id":14429,"naziv":"Kongres mladih Srbije","korisnik":"CENTAR ZA USAVRŠAVANJE MLADIH","tip":"UDRUŽENJE","iznos":350000,"maticni":"28294204","konkurs":2111},{"id":19336,"naziv":"Muzički festival \"Prvi ton\"","korisnik":"CENTAR ZA KULTURU I OBRAZOVANJE RAKOVICA","tip":"UDRUŽENJE","iznos":500000,"maticni":"07052006","konkurs":2463},{"id":4849,"naziv":"Zaječar kroz istoriju i kulturu","korisnik":"DRUŠTVO ZA RADIO I TELEVIZIJSKE AKTIVNOSTI KOPERNIKUS CABLE NETWORK DRUŠTVO SA OGRANIČENOM ODGOVORNOŠĆU, NIŠ","tip":"DOO","iznos":500000,"maticni":"20231769","konkurs":1402},{"id":16316,"naziv":"Nema naziva projekta","korisnik":"KONJIČKI KLUB PEGAZ PLOČICA","tip":"UDRUŽENJE","iznos":20000,"maticni":"08684782","konkurs":2252},{"id":23361,"naziv":"XXII Saziv Likovne kolonije sv. Rafailo Momčilović","korisnik":"LIKOVNA KOLONIJA SV RAFAILO MOMČILOVIĆ DERONJE","tip":"UDRUŽENJE","iznos":100000,"maticni":"08732078","konkurs":2702},{"id":18457,"naziv":"Umetnost flaute Miodraga Azanjca","korisnik":"UNIVERZITET U KRAGUJEVCU","tip":"USTANOVA","iznos":200000,"maticni":"07150393","konkurs":2002},{"id":13389,"naziv":"Nema naziva projekta","korisnik":"UDRUŽENJE ZA RAZVOJ KULTURE FREE SPACE","tip":"OSTALO","iznos":70000,"maticni":"28224729","konkurs":2060},{"id":11135,"naziv":"Bez nasilja - živeti bezbedno","korisnik":"INSTITUT ZA RAZVOJ","tip":"UDRUŽENJE","iznos":150000,"maticni":"28204752","konkurs":1912},{"id":19622,"naziv":"Informativna redakcija mladih \"Info Čuka\"","korisnik":"KULTURNI CENTAR ČUKARICA","tip":"USTANOVA","iznos":200000,"maticni":"07050984","konkurs":2463},{"id":14496,"naziv":"Za moj čistiji grad","korisnik":"UDRUŽENJE GRAĐANA UDRUŽENJE EKO - BU","tip":"UDRUŽENJE","iznos":20000,"maticni":"28253753","konkurs":2113},{"id":22912,"naziv":"Skice iz kulturnig života Rumuna iz Banatskog Novog Sela","korisnik":"NOVINSKO IZDAVAČKA USTANOVA LIBERTATEA","tip":"UDRUŽENJE","iznos":50000,"maticni":"08061475","konkurs":2657},{"id":22903,"naziv":"Dečiji Etno kamp sa Anom Mirković","korisnik":"KULTURNO-UMETNIČKO DRUŠTVO ABRAŠEVIĆ PANČEVO","tip":"UDRUŽENJE","iznos":155000,"maticni":"08088233","konkurs":2657},{"id":15116,"naziv":"Nema naziva projekta","korisnik":"UDRUŽENJE PENZIONISANIH PODOFICIRA SRBIJE - OPŠTINSKA ORGANIZACIJA KOVIN","tip":"UDRUŽENJE","iznos":50000,"maticni":"17643312","konkurs":2153},{"id":424,"naziv":"Nema naziva projekta","korisnik":"DUŠKO VUČETIĆ PR VIDEO PRODUKCIJA BIG MEDIA ARILJE","tip":"PREDUZETNIK","iznos":100000,"maticni":"65372371","konkurs":1146},{"id":14590,"naziv":"Podignimo svest za čisti Bujanovac","korisnik":"UDRUŽENJE GRAĐANA UDRUŽENJE EKO - BU","tip":"UDRUŽENJE","iznos":20000,"maticni":"28253753","konkurs":2115},{"id":14752,"naziv":"Pomoć borcima NOR-a i borcima rata 1991- 1999","korisnik":"SAVEZ UDRUŽENJA BORACA NARODNOOSLOBODILAČKIH RATOVA GRADA SOMBORA","tip":"UDRUŽENJE","iznos":100000,"maticni":"08064601","konkurs":2128},{"id":9202,"naziv":"Bunjevački kalendar","korisnik":"BUNJEVAČKI KULTURNI CENTAR","tip":"UDRUŽENJE","iznos":50000,"maticni":"08330620","konkurs":1812},{"id":9230,"naziv":"Igrom i pesmom kroz godine","korisnik":"GRADSKO UDRUŽENJE PENZIONERA SUBOTICA","tip":"UDRUŽENJE","iznos":20000,"maticni":"08077401","konkurs":1812},{"id":35526,"naziv":"Nema naziva projekta","korisnik":"GRADSKO UDRUŽENJE PENZIONERA VRŠAC","tip":"UDRUŽENJE","iznos":68000,"maticni":"08077657","konkurs":3307},{"id":12220,"naziv":"I ja sam nečiji heroj","korisnik":"CRVENI KRST SRBIJE - CRVENI KRST VOJVODINE - CRVENI KRST NOVI BEČEJ","tip":"UDRUŽENJE","iznos":70200,"maticni":"08020574","konkurs":1825},{"id":1776,"naziv":"Turizam u Medveđi","korisnik":"MANUELA RADOJKOVIĆ PR PROIZVODNJA KINEMATOGRAFSKIH DELA, AUDIO-VIZUELNIH PROIZVODA I TELEVIZIJSKOG PROGRAMA HELLOANIMATION NIŠ","tip":"PREDUZETNIK","iznos":200000,"maticni":"64611577","konkurs":1255},{"id":1863,"naziv":"Startap 2020: Preduzetništvo iz ženskog ugla","korisnik":"MASTER CRAFT DOO KULA","tip":"DOO","iznos":400000,"maticni":"21081213","konkurs":1258},{"id":21837,"naziv":"Časopis za književnost, umetnost i znanost - Klasje naših ravni","korisnik":"MATICA HRVATSKA SUBOTICA","tip":"UDRUŽENJE","iznos":50000,"maticni":"08616027","konkurs":2597},{"id":21846,"naziv":"Julijan Tamaš, Silvaster Makaji, Irina Hardi Kovačević: Dečija trilogija","korisnik":"NOVINSKO IZDAVAČKA USTANOVA RUSKE SLOVO","tip":"USTANOVA","iznos":100000,"maticni":"08041393","konkurs":2597},{"id":19372,"naziv":"Godišnji izlagački program Centra za kulturu Grocka","korisnik":"CENTAR ZA KULTURU GROCKA","tip":"USTANOVA","iznos":400000,"maticni":"17673939","konkurs":2463},{"id":19403,"naziv":"11. Likovna kolonija Gradske opštine Grocka","korisnik":"CENTAR ZA KULTURU GROCKA","tip":"USTANOVA","iznos":200000,"maticni":"17673939","konkurs":2463},{"id":15209,"naziv":"Za srećnije detinjstvo i dostojanstvenu starost","korisnik":"KOLO SRPSKIH SESTARA MESNI ODBOR ALEKSANDROVAC","tip":"UDRUŽENJE","iznos":150000,"maticni":"28329598","konkurs":2158},{"id":541,"naziv":"Zelene šanse","korisnik":"RESURS CENTAR TARA","tip":"UDRUŽENJE","iznos":100000,"maticni":"28109253","konkurs":1157},{"id":17857,"naziv":"Obnova fasade hrama Svetog Apostola i Jevanđeliste Marka u Trnavcima","korisnik":"SRPSKA PRAVOSLAVNA CRKVA - EPARHIJA KRUŠEVAČKA - CRKVENA OPŠTINA TRNAVCI","tip":"OSTALO","iznos":250000,"maticni":"17816373","konkurs":2162},{"id":17858,"naziv":"Izvođenje malterskih radova na spoljnim zidovima hrama Svetog Nikole u Ljubincima","korisnik":"SRPSKA PRAVOSLAVNA CRKVA - EPARHIJA KRUŠEVAČKA - CRKVENA OPŠTINA TRNAVCI - CRKVA U LJUBINCIMA","tip":"OSTALO","iznos":250000,"maticni":"17816373","konkurs":2162},{"id":17859,"naziv":"Nastavak aktivnosti na završetku krova i ugradnja PVC stolarije na crkvenoj kući pri hramu Svetog Andreje Prvozvanog u Donjem Stupnju","korisnik":"SRPSKA PRAVOSLAVNA CRKVA - EPARHIJA KRUŠEVAČKA - CRKVENA OPŠTINA VELIKOVRBNIČKA - CRKVA U DONJEM STUPNJU","tip":"OSTALO","iznos":250000,"maticni":"17816373","konkurs":2162},{"id":22847,"naziv":"Privremeni boravak - književno-muzički album","korisnik":"UDRUŽENJE KNJIŽEVNIKA I KNJIŽEVNIH PREVODILACA PANČEVO","tip":"UDRUŽENJE","iznos":200000,"maticni":"08737789","konkurs":2655},{"id":26089,"naziv":"Digitalizacija zbirke rukopisa rukopisnog odeljenja Matice Srpske","korisnik":"MATICA SRPSKA","tip":"USTANOVA","iznos":360000,"maticni":"08034435","konkurs":2787},{"id":29778,"naziv":"Naučni, kulturnni i umetnički programi Matice srpske u 2021. godini","korisnik":"MATICA SRPSKA","tip":"USTANOVA","iznos":3000000,"maticni":"08034435","konkurs":2896},{"id":29196,"naziv":"Memoarski spisi o revoluciji 1848. godine","korisnik":"MATICA SRPSKA","tip":"USTANOVA","iznos":120000,"maticni":"08034435","konkurs":2887},{"id":29197,"naziv":"Svetislav Predić, uspomene","korisnik":"MATICA SRPSKA","tip":"USTANOVA","iznos":120000,"maticni":"08034435","konkurs":2887},{"id":29198,"naziv":"Đački dnevnik Ilije Vučetića (1861-1864)","korisnik":"MATICA SRPSKA","tip":"USTANOVA","iznos":110000,"maticni":"08034435","konkurs":2887},{"id":28979,"naziv":"Literary Links of Matica srpska","korisnik":"MATICA SRPSKA","tip":"USTANOVA","iznos":150000,"maticni":"08034435","konkurs":2886},{"id":28982,"naziv":"Synaxa Matica srpska International journal for social sciences, arts and culture","korisnik":"MATICA SRPSKA","tip":"USTANOVA","iznos":150000,"maticni":"08034435","konkurs":2886},{"id":4136,"naziv":"Mitrovačka gradska hronika","korisnik":"MEDIJA CENTAR 022","tip":"UDRUŽENJE","iznos":350000,"maticni":"28271441","konkurs":1346},{"id":13316,"naziv":"Naučni, kulturni i umetnički programi Matice srpske u 2019. godini","korisnik":"MATICA SRPSKA","tip":"USTANOVA","iznos":3700000,"maticni":"08034435","konkurs":1546},{"id":6765,"naziv":"Za Mitrovicu zajedno-i sela i grad","korisnik":"MEDIJA CENTAR 022","tip":"UDRUŽENJE","iznos":300000,"maticni":"28271441","konkurs":1565},{"id":26735,"naziv":"Prepiska Milana Kašanina","korisnik":"MATICA SRPSKA","tip":"USTANOVA","iznos":300000,"maticni":"08034435","konkurs":2814},{"id":25678,"naziv":"Festival romske kulture i aktivizma - Frka 5","korisnik":"ROMSKI KULTURNI CENTAR","tip":"UDRUŽENJE","iznos":300000,"maticni":"17206397","konkurs":2760},{"id":27009,"naziv":"Dnevnici Milana Jovanovića Stoimirovića 1941-1942.","korisnik":"MATICA SRPSKA","tip":"USTANOVA","iznos":300000,"maticni":"08034435","konkurs":2821},{"id":8577,"naziv":"Synaxa Matica srpska International journal for social sciences, arts and culture","korisnik":"MATICA SRPSKA","tip":"USTANOVA","iznos":150000,"maticni":"08034435","konkurs":1541},{"id":8578,"naziv":"Literary Links of Matica srpska","korisnik":"MATICA SRPSKA","tip":"USTANOVA","iznos":150000,"maticni":"08034435","konkurs":1541},{"id":4152,"naziv":"Gradski portal - brzo, kratko, jasno","korisnik":"MEDIJA CENTAR 022","tip":"UDRUŽENJE","iznos":400000,"maticni":"28271441","konkurs":1347},{"id":3887,"naziv":"Rumska hronika","korisnik":"MEDIJA CENTAR 022","tip":"UDRUŽENJE","iznos":100000,"maticni":"28271441","konkurs":1328},{"id":18684,"naziv":"Razvoj sporta","korisnik":"OPŠTINSKI FUDBALSKI SAVEZ","tip":"OSTALO","iznos":500000,"maticni":"07228945","konkurs":2420},{"id":30554,"naziv":"Organizovanje velikih manifestacija MKC \"Kodalj Zoltan\"","korisnik":"MKC KODALJ ZOLTAN BAČKA TOPOLA","tip":"UDRUŽENJE","iznos":520000,"maticni":"08167605","konkurs":2880},{"id":27401,"naziv":"Projekat konzervatorsko-restauratorskih radova na slikanoj dekoraciji svoda i zidova trećeg traveja i zida hora u RKC „Svetog Trojstva“ u Čoki – nastavak radova na osnovu velikog projekta br. 94 – 1/7","korisnik":"MEĐUOPŠTINSKI ZAVOD ZA ZAŠTITU SPOMENIKA KULTURE","tip":"USTANOVA","iznos":5937000,"maticni":"08137455","konkurs":2829},{"id":23062,"naziv":"36. Memorijal Miroslav Antić","korisnik":"MESNA ZAJEDNICA MOKRIN","tip":"USTANOVA","iznos":150000,"maticni":"08036632","konkurs":2661},{"id":26269,"naziv":"Vrelo-Šarkamen kod Negotina Tetrarhijska rezidencija Maksimijana Daje","korisnik":"MUZEJ KRAJINE","tip":"USTANOVA","iznos":390000,"maticni":"06991734","konkurs":2800},{"id":17705,"naziv":"Nema naziva projekta","korisnik":"MESNA ORGANIZACIJA PENZIONERA 1. MZ TEMERIN","tip":"UDRUŽENJE","iznos":80000,"maticni":"11111111","konkurs":2369},{"id":17706,"naziv":"Nema naziva projekta","korisnik":"MESNA ORGANIZACIJA PENZIONERA SIRIG","tip":"UDRUŽENJE","iznos":70000,"maticni":"11111111","konkurs":2369},{"id":17707,"naziv":"Nema naziva projekta","korisnik":"MESNA ORGANIZACIJA PENZIONERA BAČKI JARAK","tip":"UDRUŽENJE","iznos":70000,"maticni":"11111111","konkurs":2369},{"id":17708,"naziv":"Nema naziva projekta","korisnik":"MESNA ORGANIZACIJA PENZIONERA STARO ĐURĐEVO","tip":"UDRUŽENJE","iznos":70000,"maticni":"11111111","konkurs":2369},{"id":26666,"naziv":"Obeležavanje stogodišnjice obnove jedinstva Srpske pravoslavne crkve i ponovnog uspostavljanja Patrijaršije 1920-2020","korisnik":"MUZEJ SPC","tip":"OSTALO","iznos":1280000,"maticni":"17435213","konkurs":2807},{"id":26812,"naziv":"Publikovanje drugog toma opisa i prve sveske paleografskog albuma 333 rukopis od XIII do XVIII veka iz Ostavine Radoslava Grujića","korisnik":"MUZEJ SPC","tip":"OSTALO","iznos":1940000,"maticni":"17435213","konkurs":2817},{"id":17777,"naziv":"30. Tini festival 2021","korisnik":"MAĐARSKO KULTURNO UMETNIČKO DRUŠTVO SZIRMAI KAROLY- TEMERIN","tip":"UDRUŽENJE","iznos":350000,"maticni":"08082677","konkurs":2371},{"id":28027,"naziv":"Tragovima znamenitih predaka Srbije – kralja Petra I Karađorđevića i doktora Koste Daničića","korisnik":"MUZEJ RUDNIČKO-TAKOVSKOG KRAJA","tip":"USTANOVA","iznos":150000,"maticni":"06993800","konkurs":2840},{"id":27254,"naziv":"Izložba: Osam vekova umetnosti pod okriljem Srpske pravoslavne crkve","korisnik":"MUZEJ SPC","tip":"OSTALO","iznos":2000000,"maticni":"17435213","konkurs":2823},{"id":15260,"naziv":"Za srećnije detinjstvo i dostojanstvenu starost","korisnik":"KOLO SRPSKIH SESTARA MESNI ODBOR ALEKSANDROVAC","tip":"UDRUŽENJE","iznos":150000,"maticni":"28329598","konkurs":2163},{"id":17670,"naziv":"Humanost i kultura","korisnik":"UDRUŽENJA SRBA SA KOSOVA I METOHIJE I BOSNE I HERCEGOVINE NAŠA BUDUĆNOST","tip":"UDRUŽENJE","iznos":70000,"maticni":"28145594","konkurs":2368},{"id":17671,"naziv":"Nabavka novogodišnjih paketića za decu RVI","korisnik":"UDRUŽENJE RATNIH I MIRNODOPSKIH VOJNIH INVALIDA OPŠTINE ARANĐELOVAC","tip":"UDRUŽENJE","iznos":40000,"maticni":"17112970","konkurs":2368},{"id":17672,"naziv":"Život van zidova","korisnik":"UDRUŽENJE MULTIPLE SKLEROZE ARANĐELOVAC","tip":"UDRUŽENJE","iznos":120000,"maticni":"17687646","konkurs":2368},{"id":17673,"naziv":"Obeležavanje značajnih istorijskih događaja","korisnik":"SAVEZ UDRUŽENJA BORAČKIH ORGANIZACIJA OPŠTINE ARANĐELOVAC","tip":"UDRUŽENJE","iznos":120000,"maticni":"07122993","konkurs":2368},{"id":17674,"naziv":"19. Nacionalna izložba pasa svih rasa i specijalka nemačkih ovčara i rotvajlera","korisnik":"KINOLOŠKO DRUŠTVO BUKULJA","tip":"UDRUŽENJE","iznos":45000,"maticni":"07312407","konkurs":2368},{"id":18497,"naziv":"Treće doba","korisnik":"UDRUŽENJE PENZIONERA BATAJNICE","tip":"UDRUŽENJE","iznos":2000000,"maticni":"28088574","konkurs":2405},{"id":18498,"naziv":"Vreme je za umetnost Umetnička radionica crtanja i vajanja za penzionere","korisnik":"UDRUŽENJE PENZIONERA TREĆE DOBA ZEMUN","tip":"UDRUŽENJE","iznos":2000000,"maticni":"28127774","konkurs":2405},{"id":18499,"naziv":"Edukacija i rekreacija za naše najstarije","korisnik":"UDRUŽENJE PENZIONERA KLUB PENZIONERA ZEMUNA","tip":"UDRUŽENJE","iznos":2000000,"maticni":"28194315","konkurs":2405},{"id":892,"naziv":"Budi odgovoran! Misli na svoje reproduktivno zdravlje!","korisnik":"CENTAR ZA INFORMISANJE, KULTURU I RAZVOJ DEMOKRATIJE DIREKTIVA","tip":"UDRUŽENJE","iznos":570000,"maticni":"28191553","konkurs":1181},{"id":18500,"naziv":"Briga za bolji život penzionera Zemuna","korisnik":"UDRUŽENJE PENZIONERA GRADSKE OPŠTINE ZEMUN","tip":"UDRUŽENJE","iznos":2000000,"maticni":"28063431","konkurs":2405},{"id":18501,"naziv":"Zemunska učionica","korisnik":"HUMANITARNO EDUKATIVNO UDRUŽENJE OMLADINA ZEMUNA","tip":"UDRUŽENJE","iznos":2000000,"maticni":"28118473","konkurs":2405},{"id":15618,"naziv":"Nema naziva projekta","korisnik":"UDRUŽENJE PROIZVOĐAČA RAKIJE ZLATIBORSKOG OKRUGA","tip":"UDRUŽENJE","iznos":250000,"maticni":"28204078","konkurs":2195},{"id":17676,"naziv":"Zemunu s ljubavlju Кrajina Srem i Šumadija u pesmi igri i običajima","korisnik":"KUD PETROVA GORA - KORDUN","tip":"UDRUŽENJE","iznos":150000,"maticni":"17453688","konkurs":2366},{"id":8623,"naziv":"Nema naziva projekta","korisnik":"SUBNOR Kučevo, Kučevo","tip":"UDRUŽENJE","iznos":80000,"maticni":"07340508","konkurs":1733},{"id":8628,"naziv":"Nema naziva projekta","korisnik":"Udruženje voćara i povrtara opštine Kučevo, Voluja","tip":"UDRUŽENJE","iznos":300000,"maticni":"28148062","konkurs":1733},{"id":17675,"naziv":"Promovisanje muzičkog potencijala dece i mladih Opštine Zemun","korisnik":"CRKVENO DEČIJI HOR I ORKESTAR ORLIĆ","tip":"UDRUŽENJE","iznos":150000,"maticni":"28271719","konkurs":2366},{"id":15627,"naziv":"Nema naziva projekta","korisnik":"BOJAN MIĆIĆ PREDUZETNIK UGOSTITELJSKA RADNJA SERDAR BB ZLATIBOR","tip":"PREDUZETNIK","iznos":300000,"maticni":"61616381","konkurs":2195},{"id":30436,"naziv":"Sveta dolina","korisnik":"LUKA JOČIĆ PR PROIZVODNJA AUDIO VIZUELNIH PROIZVODA WHITE NOISE VALJEVO","tip":"PREDUZETNIK","iznos":120000,"maticni":"64559389","konkurs":2218},{"id":30437,"naziv":"Smrt profesora tehničke","korisnik":"ŽIVORAD JANKOVIĆ PR REDITELJSKO PRODUCENTSKA DELATNOST PRODUKCIJA ŠEŠIR VALJEVO","tip":"PREDUZETNIK","iznos":220000,"maticni":"63961892","konkurs":2218},{"id":15778,"naziv":"Nastavi dalje","korisnik":"UDRUŽENJE RATNIH I MIRNODOPSKIH VOJNIH INVALIDA BEOGRADA","tip":"UDRUŽENJE","iznos":600000,"maticni":"06721478","konkurs":2205},{"id":30464,"naziv":"Crkveno graditeljstvo u duhovni razvoj","korisnik":"HRAM VASRESENJA HRISTOVOG U VALJEVU","tip":"OSTALO","iznos":3000000,"maticni":"17662627","konkurs":2225},{"id":30470,"naziv":"Aktiviraj se za lepši grad","korisnik":"OPŠTE UDRUŽENJE PRIVATNIH PREDUZETNIKA I NJIHOVIH ZADRUGA","tip":"UDRUŽENJE","iznos":700000,"maticni":"07287135","konkurs":2225},{"id":30493,"naziv":"Aktivnosti trećeg doba","korisnik":"UDRUŽENJE PENZIONERA GRADA VALJEVA","tip":"UDRUŽENJE","iznos":100000,"maticni":"07098162","konkurs":2225},{"id":30469,"naziv":"Naše Valjevo i BID zona, u korak sa vremenom","korisnik":"BID ZONA TRGOVAČKA ZONA KNEZ MILOŠ","tip":"UDRUŽENJE","iznos":750000,"maticni":"17475690","konkurs":2225},{"id":15986,"naziv":"Bezbednost dece u saobraćaju","korisnik":"SVET ZA SVE","tip":"UDRUŽENJE","iznos":2500000,"maticni":"28051751","konkurs":2238}]}